Project 1
…
Catergorial %>% group_by(ViolentCrimeTotal_cat) %>% summarize(mean = mean(Burglary), 
    sd = sd(Burglary), count = n(), se = sd/sqrt(count), max = max(income, 
        na.rm = T))

## # A tibble: 2 x 6
##   ViolentCrimeTotal_cat   mean     sd count     se   max
##   <chr>                  <dbl>  <dbl> <int>  <dbl> <dbl>
## 1 high                  83135. 60859.    21 13280. 37147
## 2 med                   15503. 11145.    29  2070. 35326

Catergorial %>% group_by(ViolentCrimeTotal_cat) %>% summarize(mean = mean(Assault), 
    sd = sd(Burglary), count = n(), se = sd/sqrt(Assault), max = max(Assault, 
        na.rm = T))

## # A tibble: 50 x 6
## # Groups:   ViolentCrimeTotal_cat [2]
##    ViolentCrimeTotal_cat   mean     sd count    se   max
##    <chr>                  <dbl>  <dbl> <int> <dbl> <int>
##  1 high                  31141. 60859.    21  532. 99681
##  2 high                  31141. 60859.    21  476. 99681
##  3 high                  31141. 60859.    21  193. 99681
##  4 high                  31141. 60859.    21  221. 99681
##  5 high                  31141. 60859.    21  390. 99681
##  6 high                  31141. 60859.    21  318. 99681
##  7 high                  31141. 60859.    21  553. 99681
##  8 high                  31141. 60859.    21  432. 99681
##  9 high                  31141. 60859.    21  430. 99681
## 10 high                  31141. 60859.    21  422. 99681
## # … with 40 more rows
…
